Dates and UNLPD Data – Bobby Coleman’s Site
…
After I made the clean column, I created a floor month so I could answer the question of which month had the most calls to UNLPD.

crime |> 
  mutate(
    clean_reported = mdy_hm(reported),
    floor_month = floor_date(clean_reported, "month")
  ) |> 
  group_by(floor_month) |> 
  tally()

# A tibble: 72 × 2
   floor_month             n
   <dttm>              <int>
 1 2018-01-01 00:00:00    55
 2 2018-02-01 00:00:00   154
 3 2018-03-01 00:00:00   117
 4 2018-04-01 00:00:00   131
 5 2018-05-01 00:00:00   104
 6 2018-06-01 00:00:00    81
 7 2018-07-01 00:00:00    79
 8 2018-08-01 00:00:00   147
 9 2018-09-01 00:00:00   205
10 2018-10-01 00:00:00   172
# ℹ 62 more rows

Finally, I threw on the arrange function to find which month had the most calls to UNLPD.

crime |> 
  mutate(
    clean_reported = mdy_hm(reported),
    floor_month = floor_date(clean_reported, "month")
  ) |> 
  group_by(floor_month) |> 
  tally() |> 
  arrange(desc(n))

# A tibble: 72 × 2
   floor_month             n
   <dttm>              <int>
 1 2018-09-01 00:00:00   205
 2 2021-09-01 00:00:00   176
 3 2018-10-01 00:00:00   172
 4 2022-10-01 00:00:00   159
 5 2018-02-01 00:00:00   154
 6 2019-09-01 00:00:00   150
 7 2020-09-01 00:00:00   150
 8 2021-08-01 00:00:00   149
 9 2018-08-01 00:00:00   147
10 2023-10-01 00:00:00   147
# ℹ 62 more rows
…
